<?xml version="1.0" encoding="UTF-8"?>
<svg width="70px" height="70px" viewBox="0 0 70 70" version="1.1" xmlns="http://www.w3.org/2000/svg" xmlns:xlink="http://www.w3.org/1999/xlink">
    <!-- Generator: sketchtool 49.3 (51167) - http://www.bohemiancoding.com/sketch -->
    <title>F3246040-84FE-4616-A091-EA5FD04EAACA</title>
    <desc>Created with sketchtool.</desc>
    <defs></defs>
    <g id="Page-1" stroke="none" stroke-width="1" fill="none" fill-rule="evenodd">
        <g id="Homepage_01_ui" transform="translate(-124.000000, -2534.000000)">
            <g id="icn_envoiplans" transform="translate(124.000000, 2534.000000)">
                <circle id="Oval-9" fill="#FFFFFF" cx="35" cy="35" r="35"></circle>
                <g id="share-folder" transform="translate(13.000000, 19.000000)" fill="#1C62B4" fill-rule="nonzero">
                    <g id="Group" transform="translate(9.972973, 0.000000)">
                        <path d="M28.4414414,24.4152172 L26.7177177,24.4152172 C26.24197,24.4152172 25.8558559,24.0385118 25.8558559,23.574357 C25.8558559,23.1102022 26.24197,22.7334968 26.7177177,22.7334968 L28.4414414,22.7334968 C28.9154655,22.7334968 29.3033033,22.3551097 29.3033033,21.8926366 L29.3033033,10.9614538 C29.3033033,10.4972989 28.9154655,10.1205935 28.4414414,10.1205935 L15.8944565,10.1205935 C14.7809309,10.1205935 13.7932372,9.42604301 13.4415976,8.39514839 L12.5021682,5.65058065 C12.3866787,5.30582796 12.0574474,5.07543226 11.6851231,5.07543226 L2.58558559,5.07543226 C2.10983784,5.07543226 1.72372372,5.45213763 1.72372372,5.91629247 L1.72372372,17.6883355 C1.72372372,18.1524903 1.33760961,18.5291957 0.861861862,18.5291957 C0.386114114,18.5291957 0,18.1524903 0,17.6883355 L0,5.91629247 C0,4.52550968 1.16006607,3.39371183 2.58558559,3.39371183 L11.6851231,3.39371183 C12.7986486,3.39371183 13.7863423,4.08658065 14.137982,5.11915699 L15.0774114,7.86372473 C15.1929009,8.20847742 15.5221321,8.43887312 15.8944565,8.43887312 L28.4414414,8.43887312 C29.866961,8.43887312 31.027027,9.57067097 31.027027,10.9614538 L31.027027,21.8926366 C31.027027,23.2834194 29.866961,24.4152172 28.4414414,24.4152172 Z" id="Shape"></path>
                        <path d="M28.4414414,10.1205935 C27.9656937,10.1205935 27.5795796,9.74388817 27.5795796,9.27973333 L27.5795796,2.55285161 C27.5795796,2.08869677 27.1917417,1.7119914 26.7177177,1.7119914 L4.30930931,1.7119914 C3.83356156,1.7119914 3.44744745,2.08869677 3.44744745,2.55285161 L3.44744745,4.23457204 C3.44744745,4.69872688 3.06133333,5.07543226 2.58558559,5.07543226 C2.10983784,5.07543226 1.72372372,4.69872688 1.72372372,4.23457204 L1.72372372,2.55285161 C1.72372372,1.16206882 2.88378979,0.0302709677 4.30930931,0.0302709677 L26.7177177,0.0302709677 C28.1432372,0.0302709677 29.3033033,1.16206882 29.3033033,2.55285161 L29.3033033,9.27973333 C29.3033033,9.74388817 28.9171892,10.1205935 28.4414414,10.1205935 Z" id="Shape"></path>
                    </g>
                    <g id="Group" transform="translate(0.000000, 14.258065)">
                        <path d="M5.97916667,16.4812258 L0.854166667,16.4812258 C0.382666667,16.4812258 0,16.1127097 0,15.6586452 L0,0.852193548 C0,0.62516129 0.097375,0.408 0.268208333,0.253354839 C0.439041667,0.0987096774 0.667958333,0.0263225806 0.905416667,0.0312580645 C2.665,0.131612903 8.51945833,0.564290323 9.9835,1.90016129 C10.173125,2.07125806 10.2687917,2.31803226 10.2465833,2.56809677 C9.85879167,6.84551613 6.91533333,15.545129 6.790625,15.912 C6.67616667,16.2525484 6.34816667,16.4812258 5.97916667,16.4812258 Z M1.70833333,14.8360645 L5.355625,14.8360645 C5.991125,12.903 8.03941667,6.50332258 8.492125,2.90206452 C7.41758333,2.39864516 4.453625,1.94458065 1.70833333,1.734 L1.70833333,14.8360645 Z" id="Shape"></path>
                        <path d="M22.8848333,19.7189032 C21.771,19.7189032 20.7801667,19.4161935 19.3434583,18.8946774 L6.56341667,14.7932903 C6.11583333,14.6485161 5.87495833,14.1829355 6.02358333,13.7519032 C6.17220833,13.3225161 6.65225,13.0872581 7.10325,13.2320323 L19.91575,17.3449355 C22.9992917,18.4685806 23.247,18.5524839 30.4254167,15.7195161 L38.893625,12.0129677 C37.950625,10.9123548 36.433625,10.404 34.9388333,10.7692258 L28.3942083,12.3436452 C27.9295417,12.4472903 27.4717083,12.1840645 27.3589583,11.7448065 C27.2462083,11.3055484 27.5246667,10.8580645 27.9807917,10.7478387 L34.5254167,9.17341935 C37.0981667,8.55812903 39.723875,9.71796774 40.9094583,12.0014516 C41.0136667,12.2005161 41.0273333,12.434129 40.9504583,12.6447097 C40.871875,12.8552903 40.707875,13.0263871 40.49775,13.1185161 L31.1019167,17.2314194 C26.6465833,18.9900968 24.6170833,19.7189032 22.8848333,19.7189032 Z" id="Shape"></path>
                        <path d="M24.6444167,13.0675161 C24.2515,13.0675161 23.8585833,13.0313226 23.4742083,12.9572903 L16.06175,11.5292903 C15.5987917,11.4404516 15.2998333,11.006129 15.3920833,10.5619355 C15.4843333,10.1160968 15.9370417,9.8216129 16.3965833,9.9153871 L23.8073333,11.3433871 C24.4240417,11.4618387 25.0697917,11.4470323 25.681375,11.3006129 L27.321375,10.9057742 C27.2154583,9.40374194 26.45525,8.68480645 24.564125,8.23074194 L9.21133333,4.94535484 C8.75008333,4.84664516 8.461375,4.4073871 8.56216667,3.96483871 C8.66466667,3.52064516 9.12591667,3.24754839 9.58204167,3.33967742 L24.9570417,6.63 C27.7894583,7.30945161 29.0416667,8.74403226 29.0416667,11.2858065 L29.0416667,11.5440968 C29.0416667,11.9208387 28.7751667,12.2515161 28.3942083,12.342 L26.0947917,12.8964194 C25.6232917,13.0099355 25.133,13.0675161 24.6444167,13.0675161 Z" id="Shape"></path>
                    </g>
                </g>
            </g>
        </g>
    </g>
</svg>