<?xml version="1.0" encoding="UTF-8"?>
<svg width="70px" height="70px" viewBox="0 0 70 70" version="1.1" xmlns="http://www.w3.org/2000/svg" xmlns:xlink="http://www.w3.org/1999/xlink">
    <!-- Generator: sketchtool 49.3 (51167) - http://www.bohemiancoding.com/sketch -->
    <title>4217D37E-2F98-40D2-B171-3A390511684D</title>
    <desc>Created with sketchtool.</desc>
    <defs></defs>
    <g id="Page-1" stroke="none" stroke-width="1" fill="none" fill-rule="evenodd">
        <g id="Homepage_01_ui" transform="translate(-124.000000, -2629.000000)">
            <g id="icn_modelisation" transform="translate(124.000000, 2629.000000)">
                <circle id="Oval-9-Copy" fill="#FFFFFF" cx="35" cy="35" r="35"></circle>
                <g id="Group-30" transform="translate(15.000000, 13.000000)" fill="#1C62B4" fill-rule="nonzero">
                    <g id="wooden-house">
                        <path d="M2.37183333,34.8333333 C1.93641667,34.8333333 1.50575,34.713 1.12575,34.4755 C0.01425,33.7883333 -0.334083333,32.32375 0.354666667,31.2090833 L16.9796667,4.29241667 C17.3960833,3.61791667 18.14975,3.21575 19,3.21575 C19.85025,3.21575 20.6055,3.61791667 21.0203333,4.294 L37.6453333,31.2090833 C38.3340833,32.32375 37.98575,33.7899167 36.8726667,34.4770833 C35.79125,35.1484167 34.2680833,34.7826667 33.6046667,33.7028333 L19,10.2061667 L4.39375,33.706 C4.06125,34.2443333 3.53875,34.62275 2.91966667,34.7684167 C2.73758333,34.8111667 2.55391667,34.8333333 2.37183333,34.8333333 Z M19,4.79908333 C18.7704167,4.79908333 18.4743333,4.88458333 18.3270833,5.12208333 L1.70208333,32.0403333 C1.47091667,32.4108333 1.58808333,32.9000833 1.95858333,33.1296667 C2.1375,33.2420833 2.35125,33.2753333 2.55708333,33.2294167 C2.76291667,33.1803333 2.9355,33.05525 3.04791667,32.8731667 L18.3270833,8.29033333 C18.6184167,7.82325 19.3815833,7.82325 19.6729167,8.29033333 L34.9505,32.8715833 C35.17375,33.2341667 35.6756667,33.3545 36.0398333,33.13125 C36.4103333,32.9000833 36.5275,32.4124167 36.2963333,32.0419167 L19.6713333,5.12525 C19.5256667,4.88458333 19.2295833,4.79908333 19,4.79908333 Z" id="Shape"></path>
                        <path d="M34.0416667,37.9984167 L3.95833333,37.9984167 C3.52133333,37.9984167 3.16666667,37.64375 3.16666667,37.20675 L3.16666667,33.2484167 C3.16666667,32.8114167 3.52133333,32.45675 3.95833333,32.45675 C4.39533333,32.45675 4.75,32.8114167 4.75,33.2484167 L4.75,36.4150833 L33.25,36.4150833 L33.25,33.2484167 C33.25,32.8114167 33.6046667,32.45675 34.0416667,32.45675 C34.4786667,32.45675 34.8333333,32.8114167 34.8333333,33.2484167 L34.8333333,37.20675 C34.8333333,37.64375 34.4786667,37.9984167 34.0416667,37.9984167 Z" id="Shape"></path>
                        <path d="M22.9583333,37.9984167 L15.0416667,37.9984167 C14.6046667,37.9984167 14.25,37.64375 14.25,37.20675 L14.25,26.1234167 C14.25,25.6864167 14.6046667,25.33175 15.0416667,25.33175 L22.9583333,25.33175 C23.3953333,25.33175 23.75,25.6864167 23.75,26.1234167 L23.75,37.20675 C23.75,37.64375 23.3953333,37.9984167 22.9583333,37.9984167 Z M15.8333333,36.4150833 L22.1666667,36.4150833 L22.1666667,26.9150833 L15.8333333,26.9150833 L15.8333333,36.4150833 Z" id="Shape"></path>
                        <path d="M29.2916667,19.7900833 C28.8546667,19.7900833 28.5,19.4354167 28.5,18.9984167 L28.5,9.49841667 L26.9166667,9.49841667 L26.9166667,13.45675 C26.9166667,13.89375 26.562,14.2484167 26.125,14.2484167 C25.688,14.2484167 25.3333333,13.89375 25.3333333,13.45675 L25.3333333,8.70675 C25.3333333,8.26975 25.688,7.91508333 26.125,7.91508333 L29.2916667,7.91508333 C29.7286667,7.91508333 30.0833333,8.26975 30.0833333,8.70675 L30.0833333,18.9984167 C30.0833333,19.4354167 29.7286667,19.7900833 29.2916667,19.7900833 Z" id="Shape"></path>
                        <path d="M27.7099167,6.33175 C27.5658333,6.33175 27.4201667,6.29375 27.2903333,6.21141667 C26.5525,5.75225 26.1313333,5.07458333 26.1313333,4.35258333 C26.1313333,3.63216667 26.5540833,2.9545 27.2903333,2.49533333 C27.5515833,2.33225 27.7083333,2.14066667 27.7083333,1.97916667 C27.7083333,1.81925 27.5531667,1.62608333 27.2935,1.46458333 C26.923,1.23341667 26.809,0.74575 27.04175,0.37525 C27.2745,0.00316666667 27.7653333,-0.107666667 28.1310833,0.1235 C28.8689167,0.582666667 29.2900833,1.26033333 29.2900833,1.98233333 C29.2900833,2.70275 28.8673333,3.38041667 28.1310833,3.83958333 C27.8698333,4.00425 27.7130833,4.19583333 27.7130833,4.35575 C27.7130833,4.51566667 27.86825,4.70883333 28.1279167,4.87033333 C28.5,5.09991667 28.6124167,5.58758333 28.38125,5.95966667 C28.2308333,6.20033333 27.97275,6.33175 27.7099167,6.33175 Z" id="Shape"></path>
                    </g>
                </g>
            </g>
        </g>
    </g>
</svg>