<?xml version="1.0" encoding="UTF-8"?>
<svg width="55px" height="60px" viewBox="0 0 55 60" version="1.1" xmlns="http://www.w3.org/2000/svg" xmlns:xlink="http://www.w3.org/1999/xlink">
    <!-- Generator: sketchtool 49.3 (51167) - http://www.bohemiancoding.com/sketch -->
    <title>77880510-7B2E-44EF-B138-60459E78E5ED</title>
    <desc>Created with sketchtool.</desc>
    <defs></defs>
    <g id="Page-1" stroke="none" stroke-width="1" fill="none" fill-rule="evenodd">
        <g id="style" transform="translate(-331.000000, -971.000000)" fill="#1C62B4">
            <g id="Group-13-Copy" transform="translate(331.000000, 971.000000)">
                <path d="M16.969023,43.3154158 L8.06467112,49.8300111 C8.03758069,49.8475854 8.01143665,49.8667191 7.98345898,49.8828539 C7.87143001,49.9473328 7.74573751,49.98656 7.6173833,49.9971166 C7.35872294,50.0184096 7.09852469,49.9208814 6.91575302,49.7340424 C6.8477312,49.664585 6.79106607,49.5837914 6.7485968,49.4958601 C6.70618667,49.4079287 6.67803155,49.3129797 6.66561018,49.2158714 C6.64910749,49.0863736 6.66075993,48.953517 6.69962109,48.8289976 C6.70932159,48.7978677 6.72233446,48.7679375 6.73369115,48.7374674 L9.0952904,43.3046793 C8.9853908,43.3032398 8.8754912,43.3009006 8.7655916,43.2974817 C8.68982121,43.2929832 8.69017611,43.2928032 8.61476061,43.2859055 C7.96104136,43.2186074 7.32086732,43.0525816 6.71919954,42.7835093 C5.89844236,42.416489 5.15990285,41.8671882 4.56627939,41.1853306 C4.06463327,40.6091585 3.66827308,39.9397768 3.40363863,39.2194718 C3.23382068,38.7572625 3.11830189,38.2746599 3.06009887,37.7849196 C3.03318589,37.5584335 3.01993642,37.3311077 3.01573682,37.103122 C2.99651326,33.457751 2.99302344,29.81214 3.01585512,26.1667689 C3.01987728,25.9527587 3.03164801,25.7392884 3.05578097,25.5265378 C3.10854224,25.0604898 3.21258605,24.6003198 3.36667025,24.1579641 C3.56695015,23.5829917 3.84980262,23.0381294 4.20440332,22.54563 C4.91052895,21.5648299 5.89471595,20.7994795 7.01447339,20.3677403 C7.46974638,20.1921776 7.94560336,20.071437 8.42885403,20.0091773 C8.66409122,19.9788871 8.90027481,19.964072 9.13722733,19.9592136 C14.6393053,19.9309028 20.1415606,19.9309028 25.6436385,19.9592136 C25.8806502,19.964072 26.1168338,19.9788871 26.352071,20.0091773 C26.8352034,20.071437 27.310942,20.1921776 27.766215,20.3676204 C28.7689158,20.7540143 29.6666264,21.4090007 30.3487965,22.248187 C30.7941324,22.7961083 31.1476684,23.4191851 31.3887022,24.0859276 C31.5566274,24.5504761 31.6694845,25.0350581 31.7251441,25.5265378 C31.7492179,25.7392884 31.7610477,25.9527587 31.7650699,26.1667689 C31.7878424,29.8135795 31.7877833,33.46063 31.7650699,37.1074406 C31.7600422,37.3741736 31.7419425,37.6399469 31.7054473,37.9043407 C31.6450558,38.341958 31.538646,38.7729174 31.3888205,39.1878621 C31.0797649,40.0439029 30.5839745,40.8286869 29.9481184,41.4729368 C29.3122623,42.1172466 28.539771,42.6194029 27.6957089,42.9331605 C27.2131089,43.112562 26.7086236,43.2296438 26.1973953,43.2828465 C26.0133223,43.3019802 25.8286579,43.3114571 25.6436385,43.314816 L25.5670992,43.3154158 L16.969023,43.3154158 Z M9.21944501,21.7582068 C8.71821293,21.760786 8.22029321,21.8424193 7.74709795,22.0118041 C7.2924756,22.174531 6.86441134,22.4131932 6.48544108,22.7155546 C5.85544074,23.2183106 5.36219383,23.8926706 5.07750773,24.6532226 C4.94755648,25.0003294 4.86048855,25.3630911 4.81866992,25.7319708 C4.80145744,25.8840212 4.79305822,26.0366114 4.79021905,26.1896215 C4.76738738,29.8384714 4.72361682,33.4881011 4.79116544,37.1363512 C4.80666259,37.6682577 4.90851787,38.1935664 5.10335602,38.688165 C5.29127369,39.1654294 5.56111328,39.6091647 5.89654958,39.994359 C6.43415854,40.6117976 7.1375633,41.0762861 7.91449078,41.3181873 C8.11352853,41.380207 8.3167659,41.4280714 8.52248754,41.4609407 C8.62901562,41.4779152 8.73684499,41.4933301 8.84455606,41.4996881 C9.00727609,41.5047864 9.17011441,41.506106 9.33289358,41.5082653 C9.70689528,41.511984 10.080897,41.5145032 10.4548987,41.5160027 L10.5523769,41.5218208 C10.584495,41.527399 10.6169089,41.5311778 10.648613,41.5384954 C10.7121986,41.5531906 10.7739506,41.5749635 10.8328634,41.6033942 C11.1315088,41.7475872 11.3300142,42.0576261 11.3383542,42.3929767 C11.3408385,42.4920644 11.3269976,42.591392 11.2976595,42.6859212 C11.2878998,42.7174109 11.2747095,42.747701 11.2632345,42.7785909 L9.67454056,46.4333189 L16.1632306,41.6860473 L16.2408346,41.6353038 C16.3139433,41.5977561 16.3312741,41.5852202 16.4095879,41.5595485 C16.4682641,41.5403548 16.5287739,41.527339 16.5901119,41.5208611 C16.6206921,41.5176222 16.6515681,41.5176222 16.6823258,41.5160027 C19.6619181,41.5160027 22.6416286,41.5384954 25.6211026,41.5155229 C26.1205011,41.5064658 26.6154633,41.4182346 27.084873,41.2436915 C27.5374251,41.0754464 27.9620587,40.831326 28.3374209,40.5246461 C28.9618612,40.0144525 29.4467089,39.3332546 29.7224634,38.5692838 C29.887786,38.1113332 29.9748539,37.6299902 29.9895821,37.143009 C30.0582546,33.4925396 30.0135376,29.8406907 29.9906468,26.1896215 C29.9878076,26.0366114 29.9794084,25.8840212 29.962196,25.7319708 C29.9225067,25.381685 29.8423001,25.0363776 29.7226409,24.7053456 C29.5503386,24.228921 29.2975932,23.784226 28.9794285,23.3926737 C28.4927472,22.793829 27.8515085,22.3253818 27.1359781,22.0497717 C26.8115436,21.9248325 26.4726766,21.8386406 26.1283679,21.794315 C25.9599696,21.7726021 25.7908023,21.7620456 25.6211026,21.7585067 C20.1539228,21.7304359 14.6866248,21.7582068 9.21944501,21.7582068 Z M39.5011027,32.6078282 C39.5803037,32.6292412 39.6014201,32.6315804 39.6767173,32.6653494 C39.7519553,32.6991184 39.7678665,32.7133937 39.8367164,32.758439 L46.3254064,37.5057107 L44.7367125,33.8509827 L44.7022875,33.7583129 C44.6942432,33.7263434 44.6844244,33.6947936 44.6781546,33.6624042 C44.6654966,33.5975054 44.6599957,33.5314669 44.6615927,33.4653685 C44.669992,33.1300179 44.8684382,32.819979 45.1671427,32.675786 C45.2553345,32.6331399 45.3505059,32.6054889 45.4475701,32.5942126 C45.4799248,32.5904938 45.5125753,32.5903139 45.5450483,32.5883945 C46.0026281,32.5865351 46.4602079,32.5835961 46.9177286,32.577538 C47.0019574,32.5760385 47.0878423,32.5782578 47.1718936,32.5711801 C47.3609351,32.5552853 47.5492077,32.525475 47.7344636,32.4842685 C48.1519402,32.3914787 48.5554574,32.2364293 48.9289268,32.025898 C49.7554215,31.55985 50.4254659,30.8244298 50.8164435,29.9511147 C50.9728937,29.6016087 51.0846269,29.2319492 51.1479168,28.8534727 C51.1866005,28.6220082 51.2054692,28.3884443 51.2098462,28.1538009 C51.2290107,24.523305 51.2324413,20.8925691 51.2097279,17.2620732 C51.2068888,17.1090631 51.1984896,16.9564729 51.1812771,16.8043625 C51.1394585,16.4354828 51.0523905,16.0727212 50.9224393,15.7256144 C50.599661,14.8632756 50.008995,14.1135202 49.2562596,13.5969686 C48.9300506,13.3731816 48.5740303,13.1946199 48.2011525,13.0661418 C47.7625005,12.9149911 47.3029687,12.8394157 46.8401837,12.8310784 C41.3532481,12.7887922 35.8657801,12.7887922 30.3788444,12.8310784 C29.9161186,12.8394157 29.4565277,12.9149911 29.0178757,13.0661418 C28.6449978,13.1946199 28.2890367,13.3731816 27.9628277,13.5969686 C27.1786248,14.1350531 26.5744136,14.9240358 26.2589698,15.8296204 C26.1430961,16.162212 26.0668526,16.5091988 26.0318361,16.8601443 C26.016339,17.0150138 26.0098917,17.1702432 26.0088861,17.3258924 L26.0030895,17.4231207 C25.9887753,17.5082929 25.9884796,17.5307856 25.9606794,17.6128388 C25.8979218,17.7977585 25.775246,17.9592858 25.6148919,18.0680304 C25.5349811,18.1222527 25.4464344,18.1630994 25.353629,18.1885911 C25.2608236,18.2140827 25.163996,18.2240995 25.0679965,18.2182214 C24.8101051,18.2023866 24.567001,18.0696499 24.4119704,17.8600782 C24.3542406,17.7821036 24.3092279,17.6945922 24.2791208,17.6020424 C24.2590101,17.5402625 24.2455831,17.4764433 24.2390176,17.4117844 C24.2333392,17.3551629 24.2341673,17.2960822 24.2349362,17.2391607 C24.2362967,17.1317957 24.2402597,17.0244308 24.2470027,16.9172457 C24.2814277,16.3684847 24.3867136,15.8246421 24.560672,15.3038319 C24.8256022,14.5108306 25.2486979,13.7741508 25.7968355,13.148135 C26.4762256,12.3720481 27.3432376,11.7706843 28.3042972,11.4134408 C28.7379807,11.2522134 29.1897047,11.1406498 29.6479352,11.081629 C29.8570283,11.0546378 30.0670679,11.0397627 30.2776989,11.0332248 L30.3563085,11.0317853 C35.8582681,10.9893791 41.36076,10.9893791 46.8627197,11.0317853 C46.9423939,11.0332248 47.0218907,11.035684 47.1015058,11.0394028 C47.3364473,11.0528984 47.5702649,11.0769505 47.8024855,11.1159978 C48.2309638,11.1880343 48.6515752,11.3063757 49.055684,11.4677231 C50.1465173,11.903301 51.1045011,12.6582748 51.7955437,13.6180218 C52.1501444,14.1104612 52.433056,14.6553834 52.6332767,15.2303559 C52.787361,15.6727716 52.8914048,16.1328815 52.944166,16.5989895 C52.968299,16.8116801 52.9800697,17.0251505 52.984151,17.2391607 C53.0069236,20.8845318 53.0034929,24.5301427 52.9842102,28.1755138 C52.9800106,28.4035594 52.9668203,28.6308253 52.9398481,28.8573114 C52.8730684,29.4195081 52.730755,29.9723477 52.5174031,30.495737 C52.0207255,31.7143596 51.1425342,32.7614381 50.0353756,33.4534324 C49.5270456,33.7710888 48.9744718,34.0141895 48.3978834,34.1718181 C48.0402069,34.2695862 47.6714104,34.3379039 47.3017857,34.3661547 C47.1699417,34.3762314 47.0367964,34.3755116 46.9047157,34.3772511 L49.266315,39.8098592 C49.2776717,39.8403892 49.2906254,39.8703195 49.3003259,39.9013893 C49.3391871,40.0259087 49.3508395,40.1587654 49.3343368,40.2882632 C49.3009766,40.549238 49.152689,40.7870005 48.9344868,40.9293941 C48.8532747,40.9823568 48.7636042,41.0217639 48.6699115,41.0455162 C48.576278,41.0693284 48.4788589,41.0774258 48.3826228,41.0695084 C48.2542095,41.0589518 48.128517,41.0197246 48.016488,40.9552456 C47.9885103,40.9391109 47.9623663,40.9199771 47.935335,40.9024029 L39.0309832,34.3878076 L35.0200027,34.3878076 L34.9240623,34.3825293 C34.8924765,34.3772511 34.8605359,34.3737122 34.829305,34.3667545 C34.7040265,34.3388036 34.5851954,34.2830818 34.4831035,34.2043275 C34.2241474,34.0047725 34.0918302,33.6679824 34.1444731,33.3425285 C34.1600294,33.2463199 34.1910829,33.1528104 34.2361547,33.0666785 C34.2811674,32.9804866 34.3400802,32.9019722 34.4098765,32.8349141 C34.5264009,32.7229906 34.6725591,32.6444162 34.829305,32.6093877 C34.9128831,32.5907337 34.9349458,32.593073 35.0200027,32.5883945 L39.3176212,32.5883945 L39.4098943,32.5932529 C39.4402971,32.5981113 39.4706999,32.6029698 39.5011027,32.6078282 Z M17.500303,37.4477696 C17.9761008,37.4477696 18.3624647,37.8398617 18.3624647,38.3227042 C18.3624647,38.8056067 17.9761008,39.1976989 17.500303,39.1976989 C17.024446,39.1976989 16.6381412,38.8056067 16.6381412,38.3227042 C16.6381412,37.8398617 17.024446,37.4477696 17.500303,37.4477696 Z M21.3702713,35.8106036 C21.7067723,35.4691349 22.2531353,35.4691349 22.5895772,35.8106036 C22.9260781,36.1520722 22.9260781,36.7064714 22.5895772,37.04794 C22.2531353,37.3894086 21.7067723,37.3894086 21.3702713,37.04794 C21.0338294,36.7064714 21.0338294,36.1520722 21.3702713,35.8106036 Z M13.2685769,35.7767746 C13.6050779,36.1182432 13.6050779,36.6726424 13.2685769,37.014111 C12.932135,37.3555797 12.385772,37.3555797 12.049271,37.014111 C11.7128291,36.6726424 11.7128291,36.1182432 12.049271,35.7767746 C12.385772,35.435306 12.932135,35.435306 13.2685769,35.7767746 Z M17.5643026,26.6450529 C17.7754069,26.6492516 17.9856239,26.6640068 18.1947762,26.6936371 C18.6819898,26.7626146 19.1584383,26.9062678 19.60407,27.1173989 C20.1656344,27.3833522 20.6766262,27.7569103 21.1040398,28.2119219 C21.504363,28.6380829 21.8306311,29.1347209 22.063384,29.6739451 C22.269638,30.1518692 22.4013046,30.6620628 22.4535335,31.1810735 C22.5049935,31.691627 22.4793818,32.2100979 22.3782363,32.7129139 C22.1602708,33.7967604 21.5823219,34.791296 20.7588438,35.5156798 C20.3653228,35.8618269 19.9183308,36.1447546 19.4386882,36.3509673 C18.8469575,36.6054643 18.2069609,36.7403003 17.5643026,36.7485177 C16.9195149,36.756735 16.2747864,36.6379737 15.6748339,36.397872 C15.0968259,36.1665275 14.5626476,35.8238592 14.1082619,35.3940394 C13.6702014,34.9796346 13.3063142,34.4861755 13.0396095,33.942093 C12.8119434,33.4776645 12.6560848,32.9776076 12.5787173,32.4648948 C12.4957307,31.9151741 12.5026512,31.351358 12.5991239,30.8038565 C12.6924025,30.2745292 12.869969,29.7609767 13.1231285,29.2885108 C13.6201018,28.3612132 14.4041864,27.6017409 15.3420002,27.1435504 C15.7655691,26.9366179 16.2176481,26.7909854 16.6814977,26.7128908 C16.9101693,26.6744434 17.1407337,26.6536901 17.3723036,26.6463125 C17.4363625,26.6450529 17.500303,26.6446931 17.5643026,26.6450529 Z M17.4586026,28.4444061 C17.3221449,28.4471052 17.1862196,28.4566421 17.0510041,28.4757759 C16.7388135,28.5199215 16.4332476,28.6122313 16.1476743,28.7476072 C15.6806306,28.969055 15.2693647,29.3057851 14.9556954,29.7206098 C14.6789945,30.0865505 14.4801342,30.5122916 14.377924,30.9616651 C14.2893774,31.351178 14.2725789,31.7570057 14.3269964,32.1528166 C14.3706486,32.4698132 14.4613247,32.780152 14.594884,33.0700974 C14.7585505,33.4253015 14.9858616,33.7497957 15.2624443,34.0237264 C15.54855,34.307014 15.8860565,34.5360193 16.2543207,34.6941877 C16.6346514,34.8575744 17.0456806,34.9438863 17.4586026,34.9491645 C17.8737132,34.9545028 18.2882322,34.8783876 18.6744779,34.723938 C19.034816,34.579925 19.3675906,34.3679541 19.6542286,34.1039802 C19.9401569,33.8406061 20.1782924,33.5245092 20.3545576,33.1760228 C20.5041465,32.8802593 20.6077763,32.5609235 20.6613656,32.2330704 C20.7258976,31.8384591 20.7182673,31.4320916 20.6394803,31.0401795 C20.5614031,30.6518061 20.4110453,30.2785479 20.2001185,29.9449967 C19.8802977,29.4393016 19.4225404,29.0254966 18.8885396,28.7647616 C18.4802312,28.5653266 18.0359008,28.4595212 17.5834079,28.4451858 C17.5417667,28.4444061 17.5002438,28.4441662 17.4586026,28.4444061 Z M24.9481007,31.6405237 C24.9481007,32.1234262 24.5617959,32.5154583 24.0859389,32.5154583 C23.6100819,32.5154583 23.2237771,32.1234262 23.2237771,31.6405237 C23.2237771,31.1576212 23.6100819,30.765589 24.0859389,30.765589 C24.5617959,30.765589 24.9481007,31.1576212 24.9481007,31.6405237 Z M11.7336497,31.6405237 C11.7336497,32.1234262 11.347345,32.5154583 10.871488,32.5154583 C10.395631,32.5154583 10.0093262,32.1234262 10.0093262,31.6405237 C10.0093262,31.1576212 10.395631,30.765589 10.871488,30.765589 C11.347345,30.765589 11.7336497,31.1576212 11.7336497,31.6405237 Z M37.8083649,17.6182371 C37.9987077,17.6305931 38.1876309,17.6516462 38.3750162,17.6883542 C38.7594282,17.7635697 39.1334891,17.8950468 39.4790399,18.0820058 C39.6430612,18.1707769 39.7990974,18.2725637 39.9486271,18.3844872 L39.952945,18.3877261 C39.9948228,18.3556966 40.0375878,18.3249866 40.0807669,18.2947564 C40.1229995,18.2657259 40.1656463,18.2375951 40.2086479,18.2098841 C40.3934898,18.0950216 40.5855479,17.9940145 40.7864784,17.9113015 C41.577306,17.5856677 42.4717042,17.5259272 43.3000325,17.7304605 C43.9864614,17.8999652 44.632018,18.2582883 45.0924962,18.8079491 C45.2405472,18.9847114 45.3686056,19.1788081 45.474069,19.384541 C45.8677675,20.1525905 45.9386876,21.0496579 45.8084998,21.8954421 C45.7469252,22.2955715 45.641935,22.6880835 45.5041761,23.0680596 C45.3942173,23.3712007 45.2630831,23.6663645 45.1151504,23.9522912 C45.0657015,24.0479 45.0132951,24.1416494 44.9611254,24.2356988 C44.8580871,24.4214582 44.7482466,24.6017594 44.6258074,24.7751628 C44.1774548,25.4098158 43.6169551,25.9586368 43.0267623,26.4563545 C42.2088443,27.1461895 41.3176401,27.7418552 40.399109,28.2837785 L40.3477081,28.3119093 C40.2940596,28.3367412 40.2410618,28.3591739 40.1839826,28.3748288 C40.0332699,28.4160353 39.8725609,28.4160353 39.7218483,28.3748288 C39.6456047,28.3539556 39.5759267,28.3216261 39.5067219,28.2837785 C39.3510406,28.1919484 39.3513364,28.1921284 39.1963649,28.0990387 C38.3048059,27.5528569 37.4399824,26.9558116 36.653177,26.261598 C36.148041,25.8158234 35.6708236,25.3283624 35.2800235,24.7751628 C35.1575842,24.6017594 35.0477437,24.4214582 34.9447055,24.2356988 C34.8747909,24.1096799 34.8055861,23.983601 34.7410541,23.8545831 C34.5977942,23.5682964 34.4718651,23.2730128 34.3670524,22.9699916 C34.1221147,22.2619825 33.9894425,21.5035899 34.0526733,20.7525748 C34.0811241,20.414705 34.1505655,20.0800142 34.2669124,19.7618779 C34.388287,19.4298262 34.5617722,19.1170882 34.7839374,18.8435774 C34.9800768,18.6020362 35.2131255,18.3924646 35.4713127,18.2213404 C35.7401467,18.0432585 36.0338235,17.9055434 36.3395077,17.8063357 C36.6331845,17.7110868 36.9379222,17.6515862 37.2452034,17.6261545 C37.369772,17.6158978 37.4942816,17.6128388 37.6192643,17.612419 C37.7139625,17.6141584 37.713785,17.6141584 37.8083649,17.6182371 Z M12.0262619,26.3280563 C12.3627628,25.9865877 12.9090668,25.9865877 13.2455678,26.3280563 C13.5820096,26.669525 13.5820096,27.2239841 13.2455678,27.5653928 C12.9090668,27.9068614 12.3627628,27.9068614 12.0262619,27.5653928 C11.68982,27.2239841 11.68982,26.669525 12.0262619,26.3280563 Z M22.6125863,26.2942274 C22.9490873,26.635696 22.9490873,27.1901552 22.6125863,27.5315638 C22.2761445,27.8730324 21.7297814,27.8730324 21.3932804,27.5315638 C21.0568386,27.1901552 21.0568386,26.635696 21.3932804,26.2942274 C21.7297814,25.9527587 22.2761445,25.9527587 22.6125863,26.2942274 Z M42.2460492,19.4129117 C42.1188189,19.41831 41.9924757,19.4306659 41.8673747,19.4552579 C41.5276205,19.5219562 41.2021213,19.6661491 40.9361856,19.8926953 C40.8313728,19.9820061 40.7389815,20.0837329 40.6554625,20.1934971 L40.6186124,20.2388424 C40.5517736,20.3108789 40.4803803,20.3742782 40.3954417,20.423822 C40.1416316,20.5719737 39.824295,20.5824703 39.5614942,20.451473 C39.4921711,20.4169243 39.4274025,20.3731386 39.3692586,20.3216154 C39.3304566,20.2872466 39.3224714,20.27681 39.2872184,20.2388424 C39.2443351,20.1861196 39.2034037,20.1319572 39.1592191,20.0803141 C39.0645209,19.9736089 38.9598856,19.8774602 38.8441302,19.7946272 C38.4409087,19.5061213 37.9316914,19.3867003 37.442999,19.4159108 C37.3196725,19.4233483 37.1968783,19.4400829 37.0762727,19.4670141 C36.6981305,19.5513466 36.3243063,19.7353666 36.0968176,20.0635195 C35.861403,20.4030088 35.7974625,20.8381069 35.8140243,21.2444144 C35.8173367,21.3266476 35.8238431,21.4087008 35.8333662,21.4904541 C35.8435399,21.5774858 35.8570851,21.6640975 35.8733512,21.7501694 C35.9229775,22.0128238 35.9993986,22.2701998 36.0942151,22.5195985 C36.1717599,22.7237119 36.2619628,22.922787 36.3621619,23.1164038 C36.4037439,23.1968376 36.4480468,23.2755319 36.4919948,23.3546461 C36.5631516,23.4828843 36.6380347,23.6075237 36.7226184,23.7272446 C36.8903069,23.9645272 37.080768,24.1848354 37.281876,24.3934473 C37.4732244,24.5918626 37.6746872,24.7800812 37.8824791,24.9606223 C38.5273851,25.5211395 39.2302575,26.0092003 39.9528858,26.4600733 C40.0967963,26.3703425 40.0965006,26.3705225 40.2397605,26.2792323 C40.8838384,25.8612886 41.510408,25.4135946 42.0878246,24.9041208 C42.4886801,24.5504161 42.8728555,24.1664214 43.1832124,23.7272446 C43.2869605,23.5804125 43.3753889,23.425483 43.462516,23.2681543 C43.6448144,22.9388617 43.7991944,22.5919949 43.9114008,22.2316324 C43.9538701,22.0951769 43.9903653,21.9566821 44.0193485,21.8166278 C44.041707,21.708723 44.0596884,21.5998585 44.0724646,21.4904541 C44.0819286,21.4089407 44.0885533,21.3271274 44.0918065,21.2451342 C44.0941133,21.1871931 44.0948823,21.129192 44.0936401,21.0712509 C44.0850043,20.6581056 43.9800733,20.2222278 43.6901229,19.9168074 C43.6266556,19.8500492 43.5560903,19.7908485 43.4803791,19.7389654 C43.3408456,19.6432966 43.1855784,19.5722198 43.0255201,19.5202767 C42.8083827,19.4497997 42.5827277,19.4175302 42.3552982,19.412072 C42.300585,19.4118921 42.3008216,19.4118321 42.2460492,19.4129117 Z M17.500303,24.0374634 C17.9761008,24.0374634 18.3624647,24.4294956 18.3624647,24.9123981 C18.3624647,25.3953006 17.9761008,25.7873327 17.500303,25.7873327 C17.024446,25.7873327 16.6381412,25.3953006 16.6381412,24.9123981 C16.6381412,24.4294956 17.024446,24.0374634 17.500303,24.0374634 Z" id="Page-1"></path>
            </g>
        </g>
    </g>
</svg>